[
  {
    "bowler": "JP Faulkner",
    "economy": 0.35000000000000003
  },
  {
    "bowler": "JJ Bumrah",
    "economy": 0.09999999999999999
  },
  {
    "bowler": "Kamran Khan",
    "economy": 0.43333333333333335
  },
  {
    "bowler": "BAW Mendis",
    "economy": 0.6666666666666666
  },
  {
    "bowler": "J Theron",
    "economy": 0.3333333333333333
  },
  {
    "bowler": "M Muralitharan",
    "economy": 0.2222222222222222
  },
  {
    "bowler": "R Vinay Kumar",
    "economy": 0.5666666666666667
  },
  {
    "bowler": "DW Steyn",
    "economy": 0.43333333333333335
  },
  {
    "bowler": "UT Yadav",
    "economy": 0.4666666666666666
  },
  {
    "bowler": "R Rampaul",
    "economy": 0.3666666666666667
  },
  {
    "bowler": "SP Narine",
    "economy": 0.3333333333333333
  },
  {
    "bowler": "CH Morris",
    "economy": 0.3333333333333333
  },
  {
    "bowler": "MG Johnson",
    "economy": 0.08333333333333333
  }
]